2   1  4                                                                   
18 33 16 2 3                                                             
 -1.000000000000000e+00  -1.000000000000000e+00
 -1.000000000000000e+00  -7.500000000000000e-01
 -7.500000000000000e-01  -1.000000000000000e+00
 -7.500000000000000e-01  -7.500000000000000e-01
 -5.000000000000000e-01  -1.000000000000000e+00
 -5.000000000000000e-01  -7.500000000000000e-01
 -2.500000000000000e-01  -1.000000000000000e+00
 -2.500000000000000e-01  -7.500000000000000e-01
  0.000000000000000e+00  -1.000000000000000e+00
  0.000000000000000e+00  -7.500000000000000e-01
  2.500000000000000e-01  -1.000000000000000e+00
  2.500000000000000e-01  -7.500000000000000e-01
  5.000000000000000e-01  -1.000000000000000e+00
  5.000000000000000e-01  -7.500000000000000e-01
  7.500000000000000e-01  -1.000000000000000e+00
  7.500000000000000e-01  -7.500000000000000e-01
  1.000000000000000e+00  -1.000000000000000e+00
  1.000000000000000e+00  -7.500000000000000e-01
2 1 2 2 -1
2 2 4 2 -3
2 4 1 1 2
2 1 3 1 -4
2 3 4 1 4
2 4 6 4 -3
2 6 3 3 4
2 3 5 3 -4
2 5 6 3 6
2 6 8 6 -3
2 8 5 5 6
2 5 7 5 -4
2 7 8 5 8
2 8 10 8 -3
2 10 7 7 8
2 7 9 7 -4
2 9 10 7 10
2 10 12 10 -3
2 12 9 9 10
2 9 11 9 -4
2 11 12 9 12
2 12 14 12 -3
2 14 11 11 12
2 11 13 11 -4
2 13 14 11 14
2 14 16 14 -3
2 16 13 13 14
2 13 15 13 -4
2 15 16 13 16
2 16 18 16 -3
2 18 15 15 16
2 15 17 15 -4
2 17 18 15 -2
