2   1  4
441 840 400 2 4
 -5.000000000000000e+00  -5.000000000000000e+00
 -4.500000000000000e+00  -5.000000000000000e+00
 -4.000000000000000e+00  -5.000000000000000e+00
 -3.500000000000000e+00  -5.000000000000000e+00
 -3.000000000000000e+00  -5.000000000000000e+00
 -2.500000000000000e+00  -5.000000000000000e+00
 -2.000000000000000e+00  -5.000000000000000e+00
 -1.500000000000000e+00  -5.000000000000000e+00
 -1.000000000000000e+00  -5.000000000000000e+00
 -5.000000000000000e-01  -5.000000000000000e+00
  0.000000000000000e+00  -5.000000000000000e+00
  5.000000000000000e-01  -5.000000000000000e+00
  1.000000000000000e+00  -5.000000000000000e+00
  1.500000000000000e+00  -5.000000000000000e+00
  2.000000000000000e+00  -5.000000000000000e+00
  2.500000000000000e+00  -5.000000000000000e+00
  3.000000000000000e+00  -5.000000000000000e+00
  3.500000000000000e+00  -5.000000000000000e+00
  4.000000000000000e+00  -5.000000000000000e+00
  4.500000000000000e+00  -5.000000000000000e+00
  5.000000000000000e+00  -5.000000000000000e+00
 -5.000000000000000e+00  -4.500000000000000e+00
 -4.499999999999999e+00  -4.500000000000000e+00
 -4.000000000000000e+00  -4.500000000000000e+00
 -3.500000000000000e+00  -4.500000000000000e+00
 -3.000000000000000e+00  -4.500000000000000e+00
 -2.500000000000000e+00  -4.500000000000000e+00
 -2.000000000000000e+00  -4.500000000000000e+00
 -1.500000000000000e+00  -4.500000000000000e+00
 -1.000000000000000e+00  -4.500000000000000e+00
 -5.000000000000000e-01  -4.500000000000000e+00
  0.000000000000000e+00  -4.500000000000000e+00
  5.000000000000000e-01  -4.500000000000000e+00
  1.000000000000000e+00  -4.500000000000000e+00
  1.500000000000000e+00  -4.500000000000000e+00
  1.999999999999999e+00  -4.500000000000000e+00
  2.500000000000000e+00  -4.500000000000000e+00
  3.000000000000000e+00  -4.500000000000000e+00
  3.500000000000000e+00  -4.500000000000000e+00
  4.000000000000000e+00  -4.500000000000000e+00
  4.499999999999999e+00  -4.500000000000000e+00
  5.000000000000000e+00  -4.500000000000000e+00
 -5.000000000000000e+00  -4.000000000000000e+00
 -4.500000000000000e+00  -4.000000000000000e+00
 -4.000000000000000e+00  -4.000000000000000e+00
 -3.500000000000000e+00  -4.000000000000000e+00
 -3.000000000000000e+00  -4.000000000000000e+00
 -2.500000000000000e+00  -4.000000000000000e+00
 -2.000000000000000e+00  -4.000000000000000e+00
 -1.500000000000000e+00  -4.000000000000000e+00
 -1.000000000000000e+00  -4.000000000000000e+00
 -5.000000000000000e-01  -4.000000000000000e+00
  0.000000000000000e+00  -4.000000000000000e+00
  5.000000000000000e-01  -4.000000000000000e+00
  1.000000000000000e+00  -4.000000000000000e+00
  1.500000000000000e+00  -4.000000000000000e+00
  2.000000000000000e+00  -4.000000000000000e+00
  2.500000000000000e+00  -4.000000000000000e+00
  3.000000000000000e+00  -4.000000000000000e+00
  3.500000000000000e+00  -4.000000000000000e+00
  4.000000000000000e+00  -4.000000000000000e+00
  4.500000000000000e+00  -4.000000000000000e+00
  5.000000000000000e+00  -4.000000000000000e+00
 -5.000000000000000e+00  -3.500000000000000e+00
 -4.500000000000000e+00  -3.500000000000000e+00
 -4.000000000000000e+00  -3.500000000000000e+00
 -3.500000000000000e+00  -3.500000000000000e+00
 -3.000000000000000e+00  -3.500000000000000e+00
 -2.500000000000000e+00  -3.500000000000000e+00
 -2.000000000000000e+00  -3.500000000000000e+00
 -1.500000000000000e+00  -3.500000000000000e+00
 -1.000000000000000e+00  -3.500000000000000e+00
 -5.000000000000000e-01  -3.500000000000000e+00
  0.000000000000000e+00  -3.500000000000000e+00
  5.000000000000000e-01  -3.500000000000000e+00
  1.000000000000000e+00  -3.500000000000000e+00
  1.500000000000000e+00  -3.500000000000000e+00
  2.000000000000000e+00  -3.500000000000000e+00
  2.500000000000000e+00  -3.500000000000000e+00
  3.000000000000000e+00  -3.500000000000000e+00
  3.500000000000001e+00  -3.500000000000000e+00
  4.000000000000000e+00  -3.500000000000000e+00
  4.500000000000000e+00  -3.500000000000000e+00
  5.000000000000000e+00  -3.500000000000000e+00
 -5.000000000000000e+00  -3.000000000000000e+00
 -4.500000000000000e+00  -3.000000000000000e+00
 -4.000000000000000e+00  -3.000000000000000e+00
 -3.500000000000000e+00  -3.000000000000000e+00
 -3.000000000000000e+00  -3.000000000000000e+00
 -2.500000000000000e+00  -3.000000000000000e+00
 -2.000000000000000e+00  -3.000000000000000e+00
 -1.500000000000000e+00  -3.000000000000000e+00
 -1.000000000000000e+00  -3.000000000000000e+00
 -5.000000000000000e-01  -3.000000000000000e+00
  0.000000000000000e+00  -3.000000000000000e+00
  5.000000000000000e-01  -3.000000000000000e+00
  1.000000000000000e+00  -3.000000000000000e+00
  1.500000000000000e+00  -3.000000000000000e+00
  2.000000000000000e+00  -3.000000000000000e+00
  2.500000000000000e+00  -3.000000000000000e+00
  3.000000000000000e+00  -3.000000000000000e+00
  3.500000000000000e+00  -3.000000000000000e+00
  4.000000000000000e+00  -3.000000000000000e+00
  4.500000000000000e+00  -3.000000000000000e+00
  5.000000000000000e+00  -3.000000000000000e+00
 -5.000000000000000e+00  -2.500000000000000e+00
 -4.500000000000000e+00  -2.500000000000000e+00
 -4.000000000000000e+00  -2.500000000000000e+00
 -3.500000000000000e+00  -2.500000000000000e+00
 -3.000000000000000e+00  -2.500000000000000e+00
 -2.500000000000000e+00  -2.500000000000000e+00
 -2.000000000000000e+00  -2.500000000000000e+00
 -1.500000000000000e+00  -2.500000000000000e+00
 -1.000000000000000e+00  -2.500000000000000e+00
 -5.000000000000000e-01  -2.500000000000000e+00
  0.000000000000000e+00  -2.500000000000000e+00
  5.000000000000000e-01  -2.500000000000000e+00
  1.000000000000000e+00  -2.500000000000000e+00
  1.500000000000000e+00  -2.500000000000000e+00
  2.000000000000000e+00  -2.500000000000000e+00
  2.500000000000000e+00  -2.500000000000000e+00
  3.000000000000000e+00  -2.500000000000000e+00
  3.500000000000000e+00  -2.500000000000000e+00
  4.000000000000000e+00  -2.500000000000000e+00
  4.500000000000000e+00  -2.500000000000000e+00
  5.000000000000000e+00  -2.500000000000000e+00
 -5.000000000000000e+00  -2.000000000000000e+00
 -4.500000000000000e+00  -2.000000000000000e+00
 -4.000000000000000e+00  -2.000000000000000e+00
 -3.500000000000000e+00  -2.000000000000000e+00
 -3.000000000000000e+00  -2.000000000000000e+00
 -2.500000000000000e+00  -2.000000000000000e+00
 -2.000000000000000e+00  -2.000000000000000e+00
 -1.500000000000000e+00  -2.000000000000000e+00
 -1.000000000000000e+00  -2.000000000000000e+00
 -5.000000000000000e-01  -2.000000000000000e+00
  0.000000000000000e+00  -2.000000000000000e+00
  5.000000000000000e-01  -2.000000000000000e+00
  1.000000000000000e+00  -2.000000000000000e+00
  1.500000000000000e+00  -2.000000000000000e+00
  1.999999999999999e+00  -2.000000000000000e+00
  2.500000000000000e+00  -2.000000000000000e+00
  3.000000000000000e+00  -2.000000000000000e+00
  3.500000000000000e+00  -2.000000000000000e+00
  4.000000000000000e+00  -2.000000000000000e+00
  4.500000000000000e+00  -2.000000000000000e+00
  5.000000000000000e+00  -2.000000000000000e+00
 -5.000000000000000e+00  -1.500000000000000e+00
 -4.500000000000000e+00  -1.500000000000000e+00
 -4.000000000000000e+00  -1.500000000000001e+00
 -3.500000000000000e+00  -1.500000000000001e+00
 -2.999999999999999e+00  -1.500000000000001e+00
 -2.500000000000000e+00  -1.500000000000001e+00
 -2.000000000000000e+00  -1.500000000000001e+00
 -1.500000000000000e+00  -1.500000000000001e+00
 -1.000000000000000e+00  -1.500000000000001e+00
 -5.000000000000000e-01  -1.500000000000001e+00
  0.000000000000000e+00  -1.500000000000001e+00
  5.000000000000000e-01  -1.500000000000001e+00
  1.000000000000000e+00  -1.500000000000001e+00
  1.500000000000000e+00  -1.500000000000001e+00
  2.000000000000000e+00  -1.500000000000001e+00
  2.500000000000000e+00  -1.500000000000001e+00
  2.999999999999999e+00  -1.500000000000001e+00
  3.500000000000000e+00  -1.500000000000001e+00
  4.000000000000000e+00  -1.500000000000001e+00
  4.500000000000000e+00  -1.500000000000001e+00
  5.000000000000000e+00  -1.500000000000000e+00
 -5.000000000000000e+00  -1.000000000000000e+00
 -4.500000000000000e+00  -1.000000000000000e+00
 -4.000000000000000e+00  -1.000000000000000e+00
 -3.500000000000000e+00  -1.000000000000000e+00
 -3.000000000000000e+00  -1.000000000000000e+00
 -2.500000000000000e+00  -1.000000000000000e+00
 -2.000000000000000e+00  -1.000000000000000e+00
 -1.500000000000000e+00  -1.000000000000000e+00
 -1.000000000000000e+00  -1.000000000000000e+00
 -5.000000000000000e-01  -1.000000000000000e+00
  0.000000000000000e+00  -1.000000000000000e+00
  5.000000000000000e-01  -1.000000000000000e+00
  1.000000000000000e+00  -1.000000000000000e+00
  1.500000000000000e+00  -1.000000000000000e+00
  2.000000000000000e+00  -1.000000000000000e+00
  2.500000000000000e+00  -1.000000000000000e+00
  3.000000000000000e+00  -1.000000000000000e+00
  3.500000000000000e+00  -1.000000000000000e+00
  4.000000000000000e+00  -1.000000000000000e+00
  4.500000000000000e+00  -1.000000000000000e+00
  5.000000000000000e+00  -1.000000000000000e+00
 -5.000000000000000e+00  -5.000000000000000e-01
 -4.500000000000000e+00  -5.000000000000000e-01
 -4.000000000000000e+00  -5.000000000000000e-01
 -3.500000000000001e+00  -5.000000000000000e-01
 -3.000000000000000e+00  -5.000000000000000e-01
 -2.500000000000000e+00  -5.000000000000000e-01
 -2.000000000000000e+00  -5.000000000000000e-01
 -1.500000000000000e+00  -5.000000000000000e-01
 -1.000000000000000e+00  -5.000000000000000e-01
 -5.000000000000000e-01  -5.000000000000000e-01
  0.000000000000000e+00  -5.000000000000000e-01
  5.000000000000000e-01  -5.000000000000000e-01
  1.000000000000000e+00  -5.000000000000000e-01
  1.500000000000000e+00  -5.000000000000000e-01
  2.000000000000000e+00  -5.000000000000000e-01
  2.500000000000000e+00  -5.000000000000000e-01
  3.000000000000000e+00  -5.000000000000000e-01
  3.500000000000000e+00  -5.000000000000000e-01
  4.000000000000000e+00  -5.000000000000000e-01
  4.500000000000000e+00  -5.000000000000000e-01
  5.000000000000000e+00  -5.000000000000000e-01
 -5.000000000000000e+00   0.000000000000000e+00
 -4.500000000000000e+00   0.000000000000000e+00
 -4.000000000000000e+00   0.000000000000000e+00
 -3.500000000000000e+00   0.000000000000000e+00
 -3.000000000000000e+00   0.000000000000000e+00
 -2.500000000000000e+00   0.000000000000000e+00
 -2.000000000000000e+00   0.000000000000000e+00
 -1.500000000000000e+00   0.000000000000000e+00
 -1.000000000000000e+00   0.000000000000000e+00
 -5.000000000000000e-01   0.000000000000000e+00
  0.000000000000000e+00   0.000000000000000e+00
  5.000000000000000e-01   0.000000000000000e+00
  1.000000000000000e+00   0.000000000000000e+00
  1.500000000000000e+00   0.000000000000000e+00
  2.000000000000000e+00   0.000000000000000e+00
  2.500000000000000e+00   0.000000000000000e+00
  3.000000000000000e+00   0.000000000000000e+00
  3.500000000000000e+00   0.000000000000000e+00
  4.000000000000000e+00   0.000000000000000e+00
  4.500000000000000e+00   0.000000000000000e+00
  5.000000000000000e+00   0.000000000000000e+00
 -5.000000000000000e+00   5.000000000000000e-01
 -4.500000000000000e+00   5.000000000000000e-01
 -4.000000000000000e+00   5.000000000000000e-01
 -3.500000000000000e+00   5.000000000000000e-01
 -3.000000000000000e+00   5.000000000000000e-01
 -2.500000000000000e+00   5.000000000000000e-01
 -2.000000000000000e+00   5.000000000000000e-01
 -1.500000000000000e+00   5.000000000000000e-01
 -1.000000000000000e+00   5.000000000000000e-01
 -5.000000000000000e-01   5.000000000000000e-01
  0.000000000000000e+00   5.000000000000000e-01
  5.000000000000000e-01   5.000000000000000e-01
  1.000000000000000e+00   5.000000000000000e-01
  1.500000000000000e+00   5.000000000000000e-01
  2.000000000000000e+00   5.000000000000000e-01
  2.500000000000000e+00   5.000000000000000e-01
  3.000000000000000e+00   5.000000000000000e-01
  3.500000000000000e+00   5.000000000000000e-01
  4.000000000000000e+00   5.000000000000000e-01
  4.500000000000000e+00   5.000000000000000e-01
  5.000000000000000e+00   5.000000000000000e-01
 -5.000000000000000e+00   1.000000000000000e+00
 -4.500000000000000e+00   1.000000000000000e+00
 -4.000000000000000e+00   1.000000000000000e+00
 -3.500000000000000e+00   1.000000000000000e+00
 -3.000000000000000e+00   1.000000000000000e+00
 -2.500000000000000e+00   1.000000000000000e+00
 -2.000000000000000e+00   1.000000000000000e+00
 -1.500000000000000e+00   1.000000000000000e+00
 -1.000000000000000e+00   1.000000000000000e+00
 -5.000000000000000e-01   1.000000000000000e+00
  0.000000000000000e+00   1.000000000000000e+00
  5.000000000000000e-01   1.000000000000000e+00
  1.000000000000000e+00   1.000000000000000e+00
  1.500000000000000e+00   1.000000000000000e+00
  2.000000000000000e+00   1.000000000000000e+00
  2.500000000000000e+00   1.000000000000000e+00
  3.000000000000000e+00   1.000000000000000e+00
  3.500000000000000e+00   1.000000000000000e+00
  4.000000000000000e+00   1.000000000000000e+00
  4.500000000000000e+00   1.000000000000000e+00
  5.000000000000000e+00   1.000000000000000e+00
 -5.000000000000000e+00   1.500000000000000e+00
 -4.500000000000000e+00   1.500000000000000e+00
 -4.000000000000000e+00   1.500000000000000e+00
 -3.500000000000000e+00   1.500000000000000e+00
 -3.000000000000000e+00   1.500000000000000e+00
 -2.500000000000000e+00   1.500000000000000e+00
 -2.000000000000000e+00   1.500000000000000e+00
 -1.500000000000000e+00   1.500000000000000e+00
 -1.000000000000000e+00   1.500000000000000e+00
 -5.000000000000000e-01   1.500000000000000e+00
  0.000000000000000e+00   1.500000000000000e+00
  5.000000000000000e-01   1.500000000000000e+00
  1.000000000000000e+00   1.500000000000000e+00
  1.500000000000000e+00   1.500000000000000e+00
  2.000000000000000e+00   1.500000000000000e+00
  2.500000000000000e+00   1.500000000000000e+00
  3.000000000000000e+00   1.500000000000000e+00
  3.500000000000000e+00   1.500000000000000e+00
  4.000000000000000e+00   1.500000000000000e+00
  4.500000000000000e+00   1.500000000000000e+00
  5.000000000000000e+00   1.500000000000000e+00
 -5.000000000000000e+00   2.000000000000000e+00
 -4.500000000000000e+00   2.000000000000000e+00
 -4.000000000000000e+00   2.000000000000000e+00
 -3.500000000000000e+00   2.000000000000000e+00
 -3.000000000000000e+00   2.000000000000000e+00
 -2.500000000000000e+00   2.000000000000000e+00
 -2.000000000000000e+00   2.000000000000000e+00
 -1.500000000000000e+00   2.000000000000000e+00
 -1.000000000000000e+00   2.000000000000000e+00
 -5.000000000000000e-01   2.000000000000000e+00
  0.000000000000000e+00   2.000000000000000e+00
  5.000000000000000e-01   2.000000000000000e+00
  1.000000000000000e+00   2.000000000000000e+00
  1.500000000000000e+00   2.000000000000000e+00
  2.000000000000000e+00   2.000000000000000e+00
  2.500000000000000e+00   2.000000000000000e+00
  3.000000000000000e+00   2.000000000000000e+00
  3.500000000000000e+00   2.000000000000000e+00
  4.000000000000000e+00   2.000000000000000e+00
  4.500000000000000e+00   2.000000000000000e+00
  5.000000000000000e+00   2.000000000000000e+00
 -5.000000000000000e+00   2.500000000000000e+00
 -4.500000000000000e+00   2.500000000000000e+00
 -4.000000000000000e+00   2.500000000000000e+00
 -3.500000000000000e+00   2.500000000000000e+00
 -3.000000000000000e+00   2.500000000000000e+00
 -2.500000000000000e+00   2.500000000000000e+00
 -2.000000000000000e+00   2.500000000000000e+00
 -1.500000000000000e+00   2.500000000000000e+00
 -1.000000000000000e+00   2.500000000000000e+00
 -5.000000000000000e-01   2.500000000000000e+00
  0.000000000000000e+00   2.500000000000000e+00
  5.000000000000000e-01   2.500000000000000e+00
  1.000000000000000e+00   2.500000000000000e+00
  1.500000000000000e+00   2.500000000000000e+00
  2.000000000000000e+00   2.500000000000000e+00
  2.500000000000000e+00   2.500000000000000e+00
  3.000000000000000e+00   2.500000000000000e+00
  3.500000000000000e+00   2.500000000000000e+00
  4.000000000000000e+00   2.500000000000000e+00
  4.500000000000000e+00   2.500000000000000e+00
  5.000000000000000e+00   2.500000000000000e+00
 -5.000000000000000e+00   3.000000000000000e+00
 -4.500000000000000e+00   3.000000000000000e+00
 -4.000000000000000e+00   3.000000000000000e+00
 -3.500000000000000e+00   3.000000000000000e+00
 -3.000000000000000e+00   3.000000000000001e+00
 -2.500000000000000e+00   3.000000000000000e+00
 -1.999999999999999e+00   3.000000000000000e+00
 -1.500000000000000e+00   3.000000000000000e+00
 -1.000000000000000e+00   3.000000000000000e+00
 -5.000000000000000e-01   3.000000000000000e+00
  0.000000000000000e+00   3.000000000000000e+00
  5.000000000000000e-01   3.000000000000000e+00
  1.000000000000000e+00   3.000000000000000e+00
  1.500000000000000e+00   3.000000000000000e+00
  2.000000000000000e+00   3.000000000000000e+00
  2.500000000000000e+00   3.000000000000000e+00
  3.000000000000000e+00   3.000000000000000e+00
  3.499999999999999e+00   3.000000000000000e+00
  4.000000000000000e+00   3.000000000000000e+00
  4.500000000000000e+00   3.000000000000000e+00
  5.000000000000000e+00   3.000000000000000e+00
 -5.000000000000000e+00   3.500000000000000e+00
 -4.500000000000000e+00   3.500000000000000e+00
 -4.000000000000000e+00   3.500000000000000e+00
 -3.500000000000000e+00   3.500000000000000e+00
 -3.000000000000000e+00   3.500000000000000e+00
 -2.500000000000000e+00   3.500000000000000e+00
 -2.000000000000000e+00   3.500000000000000e+00
 -1.500000000000000e+00   3.500000000000000e+00
 -1.000000000000000e+00   3.500000000000000e+00
 -5.000000000000000e-01   3.500000000000000e+00
  0.000000000000000e+00   3.500000000000000e+00
  5.000000000000000e-01   3.500000000000000e+00
  1.000000000000000e+00   3.500000000000000e+00
  1.500000000000000e+00   3.500000000000000e+00
  2.000000000000000e+00   3.500000000000000e+00
  2.500000000000000e+00   3.500000000000000e+00
  3.000000000000000e+00   3.500000000000000e+00
  3.500000000000000e+00   3.500000000000000e+00
  4.000000000000000e+00   3.500000000000000e+00
  4.500000000000000e+00   3.500000000000000e+00
  5.000000000000000e+00   3.500000000000000e+00
 -5.000000000000000e+00   4.000000000000000e+00
 -4.500000000000000e+00   4.000000000000000e+00
 -4.000000000000000e+00   4.000000000000000e+00
 -3.500000000000000e+00   4.000000000000000e+00
 -3.000000000000000e+00   4.000000000000000e+00
 -2.500000000000000e+00   4.000000000000000e+00
 -2.000000000000000e+00   4.000000000000000e+00
 -1.500000000000000e+00   4.000000000000000e+00
 -1.000000000000000e+00   4.000000000000000e+00
 -5.000000000000000e-01   4.000000000000000e+00
  0.000000000000000e+00   4.000000000000000e+00
  5.000000000000000e-01   4.000000000000000e+00
  1.000000000000000e+00   4.000000000000000e+00
  1.500000000000000e+00   4.000000000000000e+00
  2.000000000000000e+00   4.000000000000000e+00
  2.500000000000000e+00   4.000000000000000e+00
  3.000000000000000e+00   4.000000000000000e+00
  3.500000000000000e+00   4.000000000000000e+00
  4.000000000000000e+00   4.000000000000000e+00
  4.500000000000000e+00   4.000000000000000e+00
  5.000000000000000e+00   4.000000000000000e+00
 -5.000000000000000e+00   4.500000000000000e+00
 -4.500000000000000e+00   4.500000000000000e+00
 -4.000000000000000e+00   4.500000000000000e+00
 -3.500000000000000e+00   4.500000000000000e+00
 -3.000000000000000e+00   4.500000000000000e+00
 -2.500000000000000e+00   4.500000000000000e+00
 -2.000000000000000e+00   4.500000000000000e+00
 -1.500000000000000e+00   4.500000000000000e+00
 -1.000000000000000e+00   4.500000000000000e+00
 -5.000000000000000e-01   4.500000000000000e+00
  0.000000000000000e+00   4.500000000000000e+00
  5.000000000000000e-01   4.500000000000000e+00
  1.000000000000000e+00   4.500000000000000e+00
  1.500000000000000e+00   4.500000000000000e+00
  2.000000000000000e+00   4.500000000000000e+00
  2.500000000000000e+00   4.500000000000000e+00
  3.000000000000000e+00   4.500000000000000e+00
  3.500000000000000e+00   4.500000000000000e+00
  4.000000000000000e+00   4.500000000000000e+00
  4.500000000000000e+00   4.500000000000000e+00
  5.000000000000000e+00   4.500000000000000e+00
 -5.000000000000000e+00   5.000000000000000e+00
 -4.500000000000000e+00   5.000000000000000e+00
 -4.000000000000000e+00   5.000000000000000e+00
 -3.500000000000000e+00   5.000000000000000e+00
 -3.000000000000000e+00   5.000000000000000e+00
 -2.500000000000000e+00   5.000000000000000e+00
 -2.000000000000000e+00   5.000000000000000e+00
 -1.500000000000000e+00   5.000000000000000e+00
 -1.000000000000000e+00   5.000000000000000e+00
 -5.000000000000000e-01   5.000000000000000e+00
  0.000000000000000e+00   5.000000000000000e+00
  5.000000000000000e-01   5.000000000000000e+00
  1.000000000000000e+00   5.000000000000000e+00
  1.500000000000000e+00   5.000000000000000e+00
  2.000000000000000e+00   5.000000000000000e+00
  2.500000000000000e+00   5.000000000000000e+00
  3.000000000000000e+00   5.000000000000000e+00
  3.500000000000000e+00   5.000000000000000e+00
  4.000000000000000e+00   5.000000000000000e+00
  4.500000000000000e+00   5.000000000000000e+00
  5.000000000000000e+00   5.000000000000000e+00
2 1 2 1 -4
2 22 1 1 -1
2 2 3 2 -4
2 3 4 3 -4
2 4 5 4 -4
2 5 6 5 -4
2 6 7 6 -4
2 7 8 7 -4
2 8 9 8 -4
2 9 10 9 -4
2 10 11 10 -4
2 11 12 11 -4
2 12 13 12 -4
2 13 14 13 -4
2 14 15 14 -4
2 15 16 15 -4
2 16 17 16 -4
2 17 18 17 -4
2 18 19 18 -4
2 19 20 19 -4
2 20 21 20 -4
2 21 42 20 -2
2 43 22 21 -1
2 42 63 40 -2
2 64 43 41 -1
2 63 84 60 -2
2 85 64 61 -1
2 84 105 80 -2
2 106 85 81 -1
2 105 126 100 -2
2 127 106 101 -1
2 126 147 120 -2
2 148 127 121 -1
2 147 168 140 -2
2 169 148 141 -1
2 168 189 160 -2
2 190 169 161 -1
2 189 210 180 -2
2 211 190 181 -1
2 210 231 200 -2
2 232 211 201 -1
2 231 252 220 -2
2 253 232 221 -1
2 252 273 240 -2
2 274 253 241 -1
2 273 294 260 -2
2 295 274 261 -1
2 294 315 280 -2
2 316 295 281 -1
2 315 336 300 -2
2 337 316 301 -1
2 336 357 320 -2
2 358 337 321 -1
2 357 378 340 -2
2 379 358 341 -1
2 378 399 360 -2
2 400 379 361 -1
2 399 420 380 -2
2 422 421 381 -3
2 421 400 381 -1
2 423 422 382 -3
2 424 423 383 -3
2 425 424 384 -3
2 426 425 385 -3
2 427 426 386 -3
2 428 427 387 -3
2 429 428 388 -3
2 430 429 389 -3
2 431 430 390 -3
2 432 431 391 -3
2 433 432 392 -3
2 434 433 393 -3
2 435 434 394 -3
2 436 435 395 -3
2 437 436 396 -3
2 438 437 397 -3
2 439 438 398 -3
2 440 439 399 -3
2 420 441 400 -2
2 441 440 400 -3
2 2 23 1 2
2 3 24 2 3
2 4 25 3 4
2 5 26 4 5
2 6 27 5 6
2 7 28 6 7
2 8 29 7 8
2 9 30 8 9
2 10 31 9 10
2 11 32 10 11
2 12 33 11 12
2 13 34 12 13
2 14 35 13 14
2 15 36 14 15
2 16 37 15 16
2 17 38 16 17
2 18 39 17 18
2 19 40 18 19
2 20 41 19 20
2 23 22 1 21
2 24 23 2 22
2 23 44 21 22
2 25 24 3 23
2 24 45 22 23
2 26 25 4 24
2 25 46 23 24
2 27 26 5 25
2 26 47 24 25
2 28 27 6 26
2 27 48 25 26
2 29 28 7 27
2 28 49 26 27
2 30 29 8 28
2 29 50 27 28
2 31 30 9 29
2 30 51 28 29
2 32 31 10 30
2 31 52 29 30
2 33 32 11 31
2 32 53 30 31
2 34 33 12 32
2 33 54 31 32
2 35 34 13 33
2 34 55 32 33
2 36 35 14 34
2 35 56 33 34
2 37 36 15 35
2 36 57 34 35
2 38 37 16 36
2 37 58 35 36
2 39 38 17 37
2 38 59 36 37
2 40 39 18 38
2 39 60 37 38
2 41 40 19 39
2 40 61 38 39
2 42 41 20 40
2 41 62 39 40
2 44 43 21 41
2 45 44 22 42
2 44 65 41 42
2 46 45 23 43
2 45 66 42 43
2 47 46 24 44
2 46 67 43 44
2 48 47 25 45
2 47 68 44 45
2 49 48 26 46
2 48 69 45 46
2 50 49 27 47
2 49 70 46 47
2 51 50 28 48
2 50 71 47 48
2 52 51 29 49
2 51 72 48 49
2 53 52 30 50
2 52 73 49 50
2 54 53 31 51
2 53 74 50 51
2 55 54 32 52
2 54 75 51 52
2 56 55 33 53
2 55 76 52 53
2 57 56 34 54
2 56 77 53 54
2 58 57 35 55
2 57 78 54 55
2 59 58 36 56
2 58 79 55 56
2 60 59 37 57
2 59 80 56 57
2 61 60 38 58
2 60 81 57 58
2 62 61 39 59
2 61 82 58 59
2 63 62 40 60
2 62 83 59 60
2 65 64 41 61
2 66 65 42 62
2 65 86 61 62
2 67 66 43 63
2 66 87 62 63
2 68 67 44 64
2 67 88 63 64
2 69 68 45 65
2 68 89 64 65
2 70 69 46 66
2 69 90 65 66
2 71 70 47 67
2 70 91 66 67
2 72 71 48 68
2 71 92 67 68
2 73 72 49 69
2 72 93 68 69
2 74 73 50 70
2 73 94 69 70
2 75 74 51 71
2 74 95 70 71
2 76 75 52 72
2 75 96 71 72
2 77 76 53 73
2 76 97 72 73
2 78 77 54 74
2 77 98 73 74
2 79 78 55 75
2 78 99 74 75
2 80 79 56 76
2 79 100 75 76
2 81 80 57 77
2 80 101 76 77
2 82 81 58 78
2 81 102 77 78
2 83 82 59 79
2 82 103 78 79
2 84 83 60 80
2 83 104 79 80
2 86 85 61 81
2 87 86 62 82
2 86 107 81 82
2 88 87 63 83
2 87 108 82 83
2 89 88 64 84
2 88 109 83 84
2 90 89 65 85
2 89 110 84 85
2 91 90 66 86
2 90 111 85 86
2 92 91 67 87
2 91 112 86 87
2 93 92 68 88
2 92 113 87 88
2 94 93 69 89
2 93 114 88 89
2 95 94 70 90
2 94 115 89 90
2 96 95 71 91
2 95 116 90 91
2 97 96 72 92
2 96 117 91 92
2 98 97 73 93
2 97 118 92 93
2 99 98 74 94
2 98 119 93 94
2 100 99 75 95
2 99 120 94 95
2 101 100 76 96
2 100 121 95 96
2 102 101 77 97
2 101 122 96 97
2 103 102 78 98
2 102 123 97 98
2 104 103 79 99
2 103 124 98 99
2 105 104 80 100
2 104 125 99 100
2 107 106 81 101
2 108 107 82 102
2 107 128 101 102
2 109 108 83 103
2 108 129 102 103
2 110 109 84 104
2 109 130 103 104
2 111 110 85 105
2 110 131 104 105
2 112 111 86 106
2 111 132 105 106
2 113 112 87 107
2 112 133 106 107
2 114 113 88 108
2 113 134 107 108
2 115 114 89 109
2 114 135 108 109
2 116 115 90 110
2 115 136 109 110
2 117 116 91 111
2 116 137 110 111
2 118 117 92 112
2 117 138 111 112
2 119 118 93 113
2 118 139 112 113
2 120 119 94 114
2 119 140 113 114
2 121 120 95 115
2 120 141 114 115
2 122 121 96 116
2 121 142 115 116
2 123 122 97 117
2 122 143 116 117
2 124 123 98 118
2 123 144 117 118
2 125 124 99 119
2 124 145 118 119
2 126 125 100 120
2 125 146 119 120
2 128 127 101 121
2 129 128 102 122
2 128 149 121 122
2 130 129 103 123
2 129 150 122 123
2 131 130 104 124
2 130 151 123 124
2 132 131 105 125
2 131 152 124 125
2 133 132 106 126
2 132 153 125 126
2 134 133 107 127
2 133 154 126 127
2 135 134 108 128
2 134 155 127 128
2 136 135 109 129
2 135 156 128 129
2 137 136 110 130
2 136 157 129 130
2 138 137 111 131
2 137 158 130 131
2 139 138 112 132
2 138 159 131 132
2 140 139 113 133
2 139 160 132 133
2 141 140 114 134
2 140 161 133 134
2 142 141 115 135
2 141 162 134 135
2 143 142 116 136
2 142 163 135 136
2 144 143 117 137
2 143 164 136 137
2 145 144 118 138
2 144 165 137 138
2 146 145 119 139
2 145 166 138 139
2 147 146 120 140
2 146 167 139 140
2 149 148 121 141
2 150 149 122 142
2 149 170 141 142
2 151 150 123 143
2 150 171 142 143
2 152 151 124 144
2 151 172 143 144
2 153 152 125 145
2 152 173 144 145
2 154 153 126 146
2 153 174 145 146
2 155 154 127 147
2 154 175 146 147
2 156 155 128 148
2 155 176 147 148
2 157 156 129 149
2 156 177 148 149
2 158 157 130 150
2 157 178 149 150
2 159 158 131 151
2 158 179 150 151
2 160 159 132 152
2 159 180 151 152
2 161 160 133 153
2 160 181 152 153
2 162 161 134 154
2 161 182 153 154
2 163 162 135 155
2 162 183 154 155
2 164 163 136 156
2 163 184 155 156
2 165 164 137 157
2 164 185 156 157
2 166 165 138 158
2 165 186 157 158
2 167 166 139 159
2 166 187 158 159
2 168 167 140 160
2 167 188 159 160
2 170 169 141 161
2 171 170 142 162
2 170 191 161 162
2 172 171 143 163
2 171 192 162 163
2 173 172 144 164
2 172 193 163 164
2 174 173 145 165
2 173 194 164 165
2 175 174 146 166
2 174 195 165 166
2 176 175 147 167
2 175 196 166 167
2 177 176 148 168
2 176 197 167 168
2 178 177 149 169
2 177 198 168 169
2 179 178 150 170
2 178 199 169 170
2 180 179 151 171
2 179 200 170 171
2 181 180 152 172
2 180 201 171 172
2 182 181 153 173
2 181 202 172 173
2 183 182 154 174
2 182 203 173 174
2 184 183 155 175
2 183 204 174 175
2 185 184 156 176
2 184 205 175 176
2 186 185 157 177
2 185 206 176 177
2 187 186 158 178
2 186 207 177 178
2 188 187 159 179
2 187 208 178 179
2 189 188 160 180
2 188 209 179 180
2 191 190 161 181
2 192 191 162 182
2 191 212 181 182
2 193 192 163 183
2 192 213 182 183
2 194 193 164 184
2 193 214 183 184
2 195 194 165 185
2 194 215 184 185
2 196 195 166 186
2 195 216 185 186
2 197 196 167 187
2 196 217 186 187
2 198 197 168 188
2 197 218 187 188
2 199 198 169 189
2 198 219 188 189
2 200 199 170 190
2 199 220 189 190
2 201 200 171 191
2 200 221 190 191
2 202 201 172 192
2 201 222 191 192
2 203 202 173 193
2 202 223 192 193
2 204 203 174 194
2 203 224 193 194
2 205 204 175 195
2 204 225 194 195
2 206 205 176 196
2 205 226 195 196
2 207 206 177 197
2 206 227 196 197
2 208 207 178 198
2 207 228 197 198
2 209 208 179 199
2 208 229 198 199
2 210 209 180 200
2 209 230 199 200
2 212 211 181 201
2 213 212 182 202
2 212 233 201 202
2 214 213 183 203
2 213 234 202 203
2 215 214 184 204
2 214 235 203 204
2 216 215 185 205
2 215 236 204 205
2 217 216 186 206
2 216 237 205 206
2 218 217 187 207
2 217 238 206 207
2 219 218 188 208
2 218 239 207 208
2 220 219 189 209
2 219 240 208 209
2 221 220 190 210
2 220 241 209 210
2 222 221 191 211
2 221 242 210 211
2 223 222 192 212
2 222 243 211 212
2 224 223 193 213
2 223 244 212 213
2 225 224 194 214
2 224 245 213 214
2 226 225 195 215
2 225 246 214 215
2 227 226 196 216
2 226 247 215 216
2 228 227 197 217
2 227 248 216 217
2 229 228 198 218
2 228 249 217 218
2 230 229 199 219
2 229 250 218 219
2 231 230 200 220
2 230 251 219 220
2 233 232 201 221
2 234 233 202 222
2 233 254 221 222
2 235 234 203 223
2 234 255 222 223
2 236 235 204 224
2 235 256 223 224
2 237 236 205 225
2 236 257 224 225
2 238 237 206 226
2 237 258 225 226
2 239 238 207 227
2 238 259 226 227
2 240 239 208 228
2 239 260 227 228
2 241 240 209 229
2 240 261 228 229
2 242 241 210 230
2 241 262 229 230
2 243 242 211 231
2 242 263 230 231
2 244 243 212 232
2 243 264 231 232
2 245 244 213 233
2 244 265 232 233
2 246 245 214 234
2 245 266 233 234
2 247 246 215 235
2 246 267 234 235
2 248 247 216 236
2 247 268 235 236
2 249 248 217 237
2 248 269 236 237
2 250 249 218 238
2 249 270 237 238
2 251 250 219 239
2 250 271 238 239
2 252 251 220 240
2 251 272 239 240
2 254 253 221 241
2 255 254 222 242
2 254 275 241 242
2 256 255 223 243
2 255 276 242 243
2 257 256 224 244
2 256 277 243 244
2 258 257 225 245
2 257 278 244 245
2 259 258 226 246
2 258 279 245 246
2 260 259 227 247
2 259 280 246 247
2 261 260 228 248
2 260 281 247 248
2 262 261 229 249
2 261 282 248 249
2 263 262 230 250
2 262 283 249 250
2 264 263 231 251
2 263 284 250 251
2 265 264 232 252
2 264 285 251 252
2 266 265 233 253
2 265 286 252 253
2 267 266 234 254
2 266 287 253 254
2 268 267 235 255
2 267 288 254 255
2 269 268 236 256
2 268 289 255 256
2 270 269 237 257
2 269 290 256 257
2 271 270 238 258
2 270 291 257 258
2 272 271 239 259
2 271 292 258 259
2 273 272 240 260
2 272 293 259 260
2 275 274 241 261
2 276 275 242 262
2 275 296 261 262
2 277 276 243 263
2 276 297 262 263
2 278 277 244 264
2 277 298 263 264
2 279 278 245 265
2 278 299 264 265
2 280 279 246 266
2 279 300 265 266
2 281 280 247 267
2 280 301 266 267
2 282 281 248 268
2 281 302 267 268
2 283 282 249 269
2 282 303 268 269
2 284 283 250 270
2 283 304 269 270
2 285 284 251 271
2 284 305 270 271
2 286 285 252 272
2 285 306 271 272
2 287 286 253 273
2 286 307 272 273
2 288 287 254 274
2 287 308 273 274
2 289 288 255 275
2 288 309 274 275
2 290 289 256 276
2 289 310 275 276
2 291 290 257 277
2 290 311 276 277
2 292 291 258 278
2 291 312 277 278
2 293 292 259 279
2 292 313 278 279
2 294 293 260 280
2 293 314 279 280
2 296 295 261 281
2 297 296 262 282
2 296 317 281 282
2 298 297 263 283
2 297 318 282 283
2 299 298 264 284
2 298 319 283 284
2 300 299 265 285
2 299 320 284 285
2 301 300 266 286
2 300 321 285 286
2 302 301 267 287
2 301 322 286 287
2 303 302 268 288
2 302 323 287 288
2 304 303 269 289
2 303 324 288 289
2 305 304 270 290
2 304 325 289 290
2 306 305 271 291
2 305 326 290 291
2 307 306 272 292
2 306 327 291 292
2 308 307 273 293
2 307 328 292 293
2 309 308 274 294
2 308 329 293 294
2 310 309 275 295
2 309 330 294 295
2 311 310 276 296
2 310 331 295 296
2 312 311 277 297
2 311 332 296 297
2 313 312 278 298
2 312 333 297 298
2 314 313 279 299
2 313 334 298 299
2 315 314 280 300
2 314 335 299 300
2 317 316 281 301
2 318 317 282 302
2 317 338 301 302
2 319 318 283 303
2 318 339 302 303
2 320 319 284 304
2 319 340 303 304
2 321 320 285 305
2 320 341 304 305
2 322 321 286 306
2 321 342 305 306
2 323 322 287 307
2 322 343 306 307
2 324 323 288 308
2 323 344 307 308
2 325 324 289 309
2 324 345 308 309
2 326 325 290 310
2 325 346 309 310
2 327 326 291 311
2 326 347 310 311
2 328 327 292 312
2 327 348 311 312
2 329 328 293 313
2 328 349 312 313
2 330 329 294 314
2 329 350 313 314
2 331 330 295 315
2 330 351 314 315
2 332 331 296 316
2 331 352 315 316
2 333 332 297 317
2 332 353 316 317
2 334 333 298 318
2 333 354 317 318
2 335 334 299 319
2 334 355 318 319
2 336 335 300 320
2 335 356 319 320
2 338 337 301 321
2 339 338 302 322
2 338 359 321 322
2 340 339 303 323
2 339 360 322 323
2 341 340 304 324
2 340 361 323 324
2 342 341 305 325
2 341 362 324 325
2 343 342 306 326
2 342 363 325 326
2 344 343 307 327
2 343 364 326 327
2 345 344 308 328
2 344 365 327 328
2 346 345 309 329
2 345 366 328 329
2 347 346 310 330
2 346 367 329 330
2 348 347 311 331
2 347 368 330 331
2 349 348 312 332
2 348 369 331 332
2 350 349 313 333
2 349 370 332 333
2 351 350 314 334
2 350 371 333 334
2 352 351 315 335
2 351 372 334 335
2 353 352 316 336
2 352 373 335 336
2 354 353 317 337
2 353 374 336 337
2 355 354 318 338
2 354 375 337 338
2 356 355 319 339
2 355 376 338 339
2 357 356 320 340
2 356 377 339 340
2 359 358 321 341
2 360 359 322 342
2 359 380 341 342
2 361 360 323 343
2 360 381 342 343
2 362 361 324 344
2 361 382 343 344
2 363 362 325 345
2 362 383 344 345
2 364 363 326 346
2 363 384 345 346
2 365 364 327 347
2 364 385 346 347
2 366 365 328 348
2 365 386 347 348
2 367 366 329 349
2 366 387 348 349
2 368 367 330 350
2 367 388 349 350
2 369 368 331 351
2 368 389 350 351
2 370 369 332 352
2 369 390 351 352
2 371 370 333 353
2 370 391 352 353
2 372 371 334 354
2 371 392 353 354
2 373 372 335 355
2 372 393 354 355
2 374 373 336 356
2 373 394 355 356
2 375 374 337 357
2 374 395 356 357
2 376 375 338 358
2 375 396 357 358
2 377 376 339 359
2 376 397 358 359
2 378 377 340 360
2 377 398 359 360
2 380 379 341 361
2 381 380 342 362
2 380 401 361 362
2 382 381 343 363
2 381 402 362 363
2 383 382 344 364
2 382 403 363 364
2 384 383 345 365
2 383 404 364 365
2 385 384 346 366
2 384 405 365 366
2 386 385 347 367
2 385 406 366 367
2 387 386 348 368
2 386 407 367 368
2 388 387 349 369
2 387 408 368 369
2 389 388 350 370
2 388 409 369 370
2 390 389 351 371
2 389 410 370 371
2 391 390 352 372
2 390 411 371 372
2 392 391 353 373
2 391 412 372 373
2 393 392 354 374
2 392 413 373 374
2 394 393 355 375
2 393 414 374 375
2 395 394 356 376
2 394 415 375 376
2 396 395 357 377
2 395 416 376 377
2 397 396 358 378
2 396 417 377 378
2 398 397 359 379
2 397 418 378 379
2 399 398 360 380
2 398 419 379 380
2 401 400 361 381
2 402 401 362 382
2 401 422 381 382
2 403 402 363 383
2 402 423 382 383
2 404 403 364 384
2 403 424 383 384
2 405 404 365 385
2 404 425 384 385
2 406 405 366 386
2 405 426 385 386
2 407 406 367 387
2 406 427 386 387
2 408 407 368 388
2 407 428 387 388
2 409 408 369 389
2 408 429 388 389
2 410 409 370 390
2 409 430 389 390
2 411 410 371 391
2 410 431 390 391
2 412 411 372 392
2 411 432 391 392
2 413 412 373 393
2 412 433 392 393
2 414 413 374 394
2 413 434 393 394
2 415 414 375 395
2 414 435 394 395
2 416 415 376 396
2 415 436 395 396
2 417 416 377 397
2 416 437 396 397
2 418 417 378 398
2 417 438 397 398
2 419 418 379 399
2 418 439 398 399
2 420 419 380 400
2 419 440 399 400
